%!PS-Adobe-3.0 EPSF-3.0 
%%BoundingBox: 0 0 842 595
%%Pages: 0
%%Creator: Sun Microsystems, Inc.
%%Title: none
%%CreationDate: none
%%LanguageLevel: 2
%%EndComments
%%BeginProlog
%%BeginResource: procset SDRes-Prolog 1.0 0
/b4_inc_state save def
/dict_count countdictstack def
/op_count count 1 sub def
userdict begin
0 setgray 0 setlinecap 1 setlinewidth 0 setlinejoin 10 setmiterlimit[] 0 setdash newpath
/languagelevel where {pop languagelevel 1 ne {false setstrokeadjust false setoverprint} if} if
/bdef {bind def} bind def
/c {setrgbcolor} bdef
/l {neg lineto} bdef
/rl {neg rlineto} bdef
/lc {setlinecap} bdef
/lj {setlinejoin} bdef
/lw {setlinewidth} bdef
/ml {setmiterlimit} bdef
/ld {setdash} bdef
/m {neg moveto} bdef
/ct {6 2 roll neg 6 2 roll neg 6 2 roll neg curveto} bdef
/r {rotate} bdef
/t {neg translate} bdef
/s {scale} bdef
/sw {show} bdef
/gs {gsave} bdef
/gr {grestore} bdef
/f {findfont dup length dict begin
{1 index /FID ne {def} {pop pop} ifelse} forall /Encoding ISOLatin1Encoding def
currentdict end /NFont exch definefont pop /NFont findfont} bdef
/p {closepath} bdef
/sf {scalefont setfont} bdef
/ef {eofill}bdef
/pc {closepath stroke}bdef
/ps {stroke}bdef
/pum {matrix currentmatrix}bdef
/pom {setmatrix}bdef
/bs {/aString exch def /nXOfs exch def /nWidth exch def currentpoint nXOfs 0 rmoveto pum nWidth aString stringwidth pop div 1 scale aString show pom moveto} bdef
%%EndResource
%%EndProlog
%%BeginSetup
%%EndSetup
%%Page: 1 1
%%BeginPageSetup
%%EndPageSetup
pum
0.02835 0.02833 s 
0 -21000 t
/tm matrix currentmatrix def
gs
0 0 m 29699 0 l 29699 20999 l 0 20999 l 0 0 l eoclip newpath
gs
0 0 m 29699 0 l 29699 20999 l 0 20999 l 0 0 l eoclip newpath
300 lw 1 lj 0.003 0.003 0.003 c 16150 9600 m  13900 9600 l  13900 7100 l  18400 7100 l 
18400 9600 l  16150 9600 l  pc
pum
15426 8571 t
373 -159 m  433 -144 l  421 -95 398 -57 365 -31 ct 333 -5 293 8 245 8 ct 196 8 156 -2 126 -22 ct 
95 -42 72 -71 56 -109 ct 40 -147 32 -187 32 -231 ct 32 -278 41 -319 59 -355 ct 
77 -390 103 -417 136 -435 ct 169 -453 206 -462 246 -462 ct 292 -462 330 -451 361 -428 ct 
392 -404 414 -372 426 -330 ct 366 -316 l  356 -349 341 -373 321 -388 ct 301 -403 275 -411 245 -411 ct 
210 -411 181 -402 157 -386 ct 134 -369 117 -346 108 -318 ct 98 -290 94 -261 94 -231 ct 
94 -192 99 -159 111 -130 ct 122 -101 139 -79 163 -65 ct 187 -51 213 -44 240 -44 ct 
274 -44 303 -53 326 -73 ct 349 -92 365 -121 373 -159 ct p ef
506 0 m  506 -455 l  597 -455 l  704 -133 l  714 -103 721 -80 726 -65 ct 
731 -82 739 -106 750 -138 ct 859 -455 l  940 -455 l  940 0 l  882 0 l  882 -380 l 
750 0 l  696 0 l  564 -387 l  564 0 l  p ef
1336 -455 m  1396 -455 l  1396 -192 l  1396 -146 1391 -110 1381 -83 ct 1371 -56 1352 -34 1325 -18 ct 
1298 -1 1263 8 1219 8 ct 1176 8 1141 0 1114 -14 ct 1087 -29 1068 -50 1056 -78 ct 
1045 -106 1039 -144 1039 -192 ct 1039 -455 l  1099 -455 l  1099 -192 l  1099 -153 1103 -124 1110 -105 ct 
1117 -86 1130 -72 1148 -62 ct 1166 -52 1188 -47 1213 -47 ct 1258 -47 1289 -57 1308 -77 ct 
1327 -97 1336 -135 1336 -192 ct p ef
pom
0 lw 15025 2300 m  18401 2300 l  17275 4501 l  13900 4501 l  15025 2300 l 
pc
pum
15162 3621 t
255 0 m  255 -42 l  235 -9 204 7 163 7 ct 137 7 113 0 91 -14 ct 69 -29 52 -49 40 -75 ct 
28 -101 22 -131 22 -164 ct 22 -197 27 -227 38 -254 ct 49 -281 66 -301 87 -315 ct 
109 -330 134 -337 161 -337 ct 181 -337 198 -333 214 -324 ct 229 -316 242 -305 252 -291 ct 
252 -455 l  307 -455 l  307 0 l  p
79 -164 m  79 -122 88 -91 106 -70 ct 124 -49 144 -38 169 -38 ct 193 -38 214 -48 231 -68 ct 
248 -88 256 -119 256 -160 ct 256 -205 248 -238 230 -259 ct 213 -280 192 -291 166 -291 ct 
141 -291 121 -280 104 -260 ct 87 -240 79 -208 79 -164 ct p ef
395 -390 m  395 -455 l  451 -455 l  451 -390 l  p
395 0 m  395 -329 l  451 -329 l  451 0 l  p ef
514 -98 m  569 -107 l  572 -85 580 -68 595 -56 ct 609 -44 629 -38 654 -38 ct 
680 -38 699 -44 711 -54 ct 723 -65 730 -77 730 -91 ct 730 -103 724 -113 713 -121 ct 
706 -126 687 -132 656 -140 ct 615 -150 587 -159 571 -166 ct 555 -174 543 -184 535 -198 ct 
527 -211 523 -226 523 -242 ct 523 -257 526 -270 533 -283 ct 540 -295 549 -306 560 -314 ct 
569 -320 581 -326 596 -330 ct 611 -335 627 -337 644 -337 ct 670 -337 693 -333 712 -326 ct 
732 -318 746 -308 755 -295 ct 765 -283 771 -266 775 -244 ct 720 -237 l  718 -254 710 -267 698 -277 ct 
687 -286 670 -291 648 -291 ct 622 -291 604 -287 593 -278 ct 582 -270 577 -260 577 -248 ct 
577 -241 579 -235 584 -229 ct 588 -223 595 -218 605 -214 ct 611 -212 627 -207 654 -200 ct 
694 -189 721 -181 737 -174 ct 753 -167 765 -157 774 -144 ct 783 -132 787 -116 787 -97 ct 
787 -78 782 -61 771 -44 ct 760 -28 744 -15 724 -6 ct 703 3 680 7 654 7 ct 612 7 579 -1 556 -19 ct 
534 -37 520 -63 514 -98 ct p ef
853 126 m  853 -329 l  904 -329 l  904 -286 l  916 -303 929 -316 944 -324 ct 
959 -333 978 -337 999 -337 ct 1027 -337 1052 -329 1074 -315 ct 1095 -301 1111 -280 1122 -254 ct 
1133 -227 1139 -199 1139 -167 ct 1139 -133 1133 -103 1121 -76 ct 1109 -49 1091 -28 1068 -14 ct 
1045 0 1021 7 995 7 ct 977 7 960 4 945 -4 ct 930 -12 918 -22 909 -34 ct 909 126 l 
p
903 -163 m  903 -120 912 -89 929 -69 ct 946 -49 967 -38 991 -38 ct 1016 -38 1037 -49 1055 -70 ct 
1073 -91 1082 -123 1082 -167 ct 1082 -209 1073 -241 1056 -262 ct 1039 -283 1018 -293 994 -293 ct 
970 -293 949 -282 931 -260 ct 913 -237 903 -205 903 -163 ct p ef
1205 0 m  1205 -455 l  1260 -455 l  1260 0 l  p ef
1562 -41 m  1541 -23 1521 -11 1502 -3 ct 1483 4 1462 7 1440 7 ct 1404 7 1377 -1 1357 -19 ct 
1338 -37 1328 -59 1328 -87 ct 1328 -103 1332 -118 1339 -131 ct 1346 -144 1356 -155 1368 -163 ct 
1380 -171 1393 -177 1408 -181 ct 1419 -184 1435 -187 1458 -190 ct 1503 -195 1536 -202 1557 -209 ct 
1557 -217 1557 -221 1557 -224 ct 1557 -246 1552 -262 1542 -272 ct 1527 -284 1506 -291 1478 -291 ct 
1452 -291 1432 -286 1420 -277 ct 1407 -268 1398 -251 1392 -228 ct 1338 -235 l 
1343 -259 1351 -278 1362 -292 ct 1373 -306 1390 -317 1411 -325 ct 1433 -333 1458 -337 1486 -337 ct 
1514 -337 1537 -333 1555 -327 ct 1572 -320 1585 -312 1593 -302 ct 1602 -292 1607 -279 1611 -264 ct 
1613 -254 1614 -237 1614 -212 ct 1614 -138 l  1614 -86 1615 -53 1617 -40 ct 
1619 -26 1624 -13 1631 0 ct 1573 0 l  1567 -12 1563 -25 1562 -41 ct p
1557 -165 m  1537 -157 1506 -150 1466 -144 ct 1443 -141 1427 -137 1417 -133 ct 
1408 -129 1400 -123 1395 -115 ct 1390 -107 1387 -98 1387 -88 ct 1387 -73 1393 -61 1404 -51 ct 
1416 -41 1432 -36 1454 -36 ct 1475 -36 1494 -41 1511 -50 ct 1528 -60 1540 -73 1548 -89 ct 
1554 -102 1557 -120 1557 -145 ct p ef
1698 127 m  1692 74 l  1704 78 1715 79 1724 79 ct 1737 79 1746 77 1754 73 ct 
1761 69 1767 63 1772 56 ct 1776 50 1781 36 1789 14 ct 1790 11 1792 7 1794 1 ct 
1669 -329 l  1729 -329 l  1798 -139 l  1807 -114 1815 -89 1822 -62 ct 1828 -88 1836 -113 1845 -137 ct 
1915 -329 l  1971 -329 l  1846 6 l  1832 42 1822 67 1814 80 ct 1804 99 1793 112 1780 121 ct 
1767 129 1752 134 1734 134 ct 1724 134 1712 131 1698 127 ct p ef
pom

7950 18600 m  6400 18600 l  6400 16100 l  9500 16100 l  9500 18600 l  7950 18600 l 
pc
pum
6733 17571 t
29 -146 m  85 -151 l  88 -128 94 -110 104 -95 ct 114 -80 129 -69 150 -60 ct 
170 -51 194 -46 220 -46 ct 242 -46 263 -50 280 -56 ct 298 -63 311 -73 320 -84 ct 
328 -96 332 -109 332 -123 ct 332 -138 328 -150 320 -161 ct 312 -171 298 -180 279 -188 ct 
267 -192 240 -200 198 -210 ct 156 -220 127 -229 110 -238 ct 89 -249 73 -264 62 -280 ct 
51 -297 46 -316 46 -337 ct 46 -360 52 -381 65 -401 ct 78 -421 97 -436 122 -447 ct 
147 -457 175 -462 206 -462 ct 240 -462 269 -457 295 -446 ct 321 -435 341 -419 354 -398 ct 
368 -377 376 -353 377 -326 ct 319 -322 l  316 -351 305 -373 288 -387 ct 270 -402 243 -409 208 -409 ct 
172 -409 145 -403 129 -389 ct 112 -376 104 -360 104 -341 ct 104 -325 110 -311 122 -301 ct 
133 -290 163 -279 212 -268 ct 261 -257 295 -248 313 -239 ct 339 -227 359 -212 371 -193 ct 
384 -174 390 -153 390 -128 ct 390 -104 383 -81 370 -60 ct 356 -39 336 -22 310 -10 ct 
284 2 255 8 222 8 ct 181 8 147 2 119 -10 ct 91 -22 69 -40 53 -64 ct 38 -88 29 -116 29 -146 ct 
p ef
472 0 m  472 -455 l  629 -455 l  664 -455 691 -452 709 -448 ct 736 -442 758 -431 776 -415 ct 
800 -395 818 -369 830 -338 ct 842 -306 848 -270 848 -230 ct 848 -195 844 -165 836 -138 ct 
828 -111 817 -89 805 -72 ct 792 -54 778 -41 763 -31 ct 748 -21 730 -13 709 -8 ct 
688 -3 664 0 636 0 ct p
532 -54 m  629 -54 l  659 -54 683 -56 700 -62 ct 717 -68 730 -75 741 -86 ct 
755 -100 766 -119 774 -143 ct 782 -167 786 -196 786 -231 ct 786 -278 778 -315 762 -340 ct 
747 -366 728 -383 705 -392 ct 689 -398 663 -401 628 -401 ct 532 -401 l  p ef
1431 -159 m  1491 -144 l  1479 -95 1456 -57 1423 -31 ct 1391 -5 1351 8 1303 8 ct 
1254 8 1214 -2 1184 -22 ct 1153 -42 1130 -71 1114 -109 ct 1098 -147 1090 -187 1090 -231 ct 
1090 -278 1099 -319 1117 -355 ct 1135 -390 1161 -417 1194 -435 ct 1227 -453 1264 -462 1304 -462 ct 
1350 -462 1388 -451 1419 -428 ct 1450 -404 1472 -372 1484 -330 ct 1424 -316 l 
1414 -349 1399 -373 1379 -388 ct 1359 -403 1333 -411 1303 -411 ct 1268 -411 1239 -402 1215 -386 ct 
1192 -369 1175 -346 1166 -318 ct 1156 -290 1152 -261 1152 -231 ct 1152 -192 1157 -159 1169 -130 ct 
1180 -101 1197 -79 1221 -65 ct 1245 -51 1271 -44 1298 -44 ct 1332 -44 1361 -53 1384 -73 ct 
1407 -92 1423 -121 1431 -159 ct p ef
1774 -41 m  1753 -23 1733 -11 1714 -3 ct 1695 4 1674 7 1652 7 ct 1616 7 1589 -1 1569 -19 ct 
1550 -37 1540 -59 1540 -87 ct 1540 -103 1544 -118 1551 -131 ct 1558 -144 1568 -155 1580 -163 ct 
1592 -171 1605 -177 1620 -181 ct 1631 -184 1647 -187 1670 -190 ct 1715 -195 1748 -202 1769 -209 ct 
1769 -217 1769 -221 1769 -224 ct 1769 -246 1764 -262 1754 -272 ct 1739 -284 1718 -291 1690 -291 ct 
1664 -291 1644 -286 1632 -277 ct 1619 -268 1610 -251 1604 -228 ct 1550 -235 l 
1555 -259 1563 -278 1574 -292 ct 1585 -306 1602 -317 1623 -325 ct 1645 -333 1670 -337 1698 -337 ct 
1726 -337 1749 -333 1767 -327 ct 1784 -320 1797 -312 1805 -302 ct 1814 -292 1819 -279 1823 -264 ct 
1825 -254 1826 -237 1826 -212 ct 1826 -138 l  1826 -86 1827 -53 1829 -40 ct 
1831 -26 1836 -13 1843 0 ct 1785 0 l  1779 -12 1775 -25 1774 -41 ct p
1769 -165 m  1749 -157 1718 -150 1678 -144 ct 1655 -141 1639 -137 1629 -133 ct 
1620 -129 1612 -123 1607 -115 ct 1602 -107 1599 -98 1599 -88 ct 1599 -73 1605 -61 1616 -51 ct 
1628 -41 1644 -36 1666 -36 ct 1687 -36 1706 -41 1723 -50 ct 1740 -60 1752 -73 1760 -89 ct 
1766 -102 1769 -120 1769 -145 ct p ef
1911 0 m  1911 -329 l  1961 -329 l  1961 -279 l  1974 -303 1986 -318 1997 -326 ct 
2008 -333 2020 -337 2033 -337 ct 2052 -337 2071 -331 2090 -319 ct 2071 -267 l 
2057 -275 2044 -279 2030 -279 ct 2018 -279 2007 -275 1997 -268 ct 1987 -261 1980 -251 1976 -238 ct 
1970 -218 1967 -196 1967 -172 ct 1967 0 l  p ef
2336 0 m  2336 -42 l  2316 -9 2285 7 2244 7 ct 2218 7 2194 0 2172 -14 ct 2150 -29 2133 -49 2121 -75 ct 
2109 -101 2103 -131 2103 -164 ct 2103 -197 2108 -227 2119 -254 ct 2130 -281 2147 -301 2168 -315 ct 
2190 -330 2215 -337 2242 -337 ct 2262 -337 2279 -333 2295 -324 ct 2310 -316 2323 -305 2333 -291 ct 
2333 -455 l  2388 -455 l  2388 0 l  p
2160 -164 m  2160 -122 2169 -91 2187 -70 ct 2205 -49 2225 -38 2250 -38 ct 2274 -38 2295 -48 2312 -68 ct 
2329 -88 2337 -119 2337 -160 ct 2337 -205 2329 -238 2311 -259 ct 2294 -280 2273 -291 2247 -291 ct 
2222 -291 2202 -280 2185 -260 ct 2168 -240 2160 -208 2160 -164 ct p ef
pom
12850 18600 m  10600 18600 l  10600 16100 l  15100 16100 l  15100 18600 l 
12850 18600 l  pc
pum
12391 17571 t
373 -159 m  433 -144 l  421 -95 398 -57 365 -31 ct 333 -5 293 8 245 8 ct 196 8 156 -2 126 -22 ct 
95 -42 72 -71 56 -109 ct 40 -147 32 -187 32 -231 ct 32 -278 41 -319 59 -355 ct 
77 -390 103 -417 136 -435 ct 169 -453 206 -462 246 -462 ct 292 -462 330 -451 361 -428 ct 
392 -404 414 -372 426 -330 ct 366 -316 l  356 -349 341 -373 321 -388 ct 301 -403 275 -411 245 -411 ct 
210 -411 181 -402 157 -386 ct 134 -369 117 -346 108 -318 ct 98 -290 94 -261 94 -231 ct 
94 -192 99 -159 111 -130 ct 122 -101 139 -79 163 -65 ct 187 -51 213 -44 240 -44 ct 
274 -44 303 -53 326 -73 ct 349 -92 365 -121 373 -159 ct p ef
509 0 m  509 -455 l  666 -455 l  701 -455 728 -452 746 -448 ct 773 -442 795 -431 813 -415 ct 
837 -395 855 -369 867 -338 ct 879 -306 885 -270 885 -230 ct 885 -195 881 -165 873 -138 ct 
865 -111 854 -89 842 -72 ct 829 -54 815 -41 800 -31 ct 785 -21 767 -13 746 -8 ct 
725 -3 701 0 673 0 ct p
569 -54 m  666 -54 l  696 -54 720 -56 737 -62 ct 754 -68 767 -75 778 -86 ct 
792 -100 803 -119 811 -143 ct 819 -167 823 -196 823 -231 ct 823 -278 815 -315 799 -340 ct 
784 -366 765 -383 742 -392 ct 726 -398 700 -401 665 -401 ct 569 -401 l  p ef
pom
18750 18600 m  16500 18600 l  16500 16100 l  21000 16100 l  21000 18600 l 
18750 18600 l  pc
pum
18344 17571 t
165 0 m  165 -401 l  15 -401 l  15 -455 l  375 -455 l  375 -401 l  225 -401 l 
225 0 l  p ef
568 0 m  392 -455 l  457 -455 l  575 -124 l  585 -98 593 -73 599 -50 ct 606 -75 614 -100 623 -124 ct 
746 -455 l  808 -455 l  630 0 l  p ef
pom
25200 18600 m  22700 18600 l  22700 16100 l  27700 16100 l  27700 18600 l 
25200 18600 l  pc
pum
23031 17571 t
49 0 m  49 -455 l  220 -455 l  251 -455 274 -453 290 -450 ct 312 -446 331 -439 346 -429 ct 
361 -419 373 -404 382 -385 ct 391 -366 396 -346 396 -323 ct 396 -284 384 -252 359 -225 ct 
334 -198 290 -185 226 -185 ct 109 -185 l  109 0 l  p
109 -238 m  227 -238 l  266 -238 293 -246 309 -260 ct 326 -275 334 -295 334 -321 ct 
334 -340 329 -357 320 -370 ct 310 -384 297 -393 282 -397 ct 271 -400 253 -401 225 -401 ct 
109 -401 l  p ef
464 0 m  464 -329 l  514 -329 l  514 -279 l  527 -303 539 -318 550 -326 ct 
561 -333 573 -337 586 -337 ct 605 -337 624 -331 643 -319 ct 624 -267 l  610 -275 597 -279 583 -279 ct 
571 -279 560 -275 550 -268 ct 540 -261 533 -251 529 -238 ct 523 -218 520 -196 520 -172 ct 
520 0 l  p ef
902 -106 m  960 -99 l  951 -65 934 -39 909 -20 ct 885 -2 853 7 815 7 ct 767 7 729 -7 701 -37 ct 
672 -67 658 -108 658 -162 ct 658 -217 673 -260 701 -291 ct 730 -321 767 -337 812 -337 ct 
856 -337 892 -322 920 -292 ct 948 -262 962 -220 962 -165 ct 962 -162 962 -157 961 -150 ct 
716 -150 l  718 -114 728 -87 747 -67 ct 765 -48 788 -38 815 -38 ct 836 -38 853 -44 868 -55 ct 
882 -65 894 -82 902 -106 ct p
719 -196 m  903 -196 l  900 -224 893 -245 882 -259 ct 864 -280 841 -291 813 -291 ct 
787 -291 765 -282 748 -265 ct 731 -248 721 -225 719 -196 ct p ef
1030 0 m  1030 -329 l  1080 -329 l  1080 -283 l  1090 -299 1104 -312 1121 -322 ct 
1138 -332 1158 -337 1180 -337 ct 1204 -337 1224 -332 1240 -322 ct 1255 -311 1266 -297 1273 -279 ct 
1299 -318 1333 -337 1374 -337 ct 1407 -337 1432 -328 1450 -310 ct 1467 -292 1476 -264 1476 -226 ct 
1476 0 l  1421 0 l  1421 -207 l  1421 -230 1419 -246 1415 -256 ct 1411 -265 1405 -273 1395 -279 ct 
1386 -285 1375 -288 1362 -288 ct 1339 -288 1320 -281 1304 -265 ct 1289 -250 1281 -225 1281 -191 ct 
1281 0 l  1226 0 l  1226 -214 l  1226 -239 1221 -257 1212 -270 ct 1203 -282 1188 -288 1167 -288 ct 
1152 -288 1137 -284 1124 -276 ct 1110 -268 1101 -256 1095 -240 ct 1089 -224 1086 -201 1086 -171 ct 
1086 0 l  p ef
1559 -390 m  1559 -455 l  1615 -455 l  1615 -390 l  p
1559 0 m  1559 -329 l  1615 -329 l  1615 0 l  p ef
1916 0 m  1916 -48 l  1890 -11 1855 7 1811 7 ct 1792 7 1774 4 1757 -4 ct 1740 -11 1727 -21 1719 -32 ct 
1711 -43 1705 -57 1702 -73 ct 1700 -84 1699 -101 1699 -125 ct 1699 -329 l  1754 -329 l 
1754 -147 l  1754 -118 1756 -98 1758 -88 ct 1761 -73 1769 -62 1780 -53 ct 1792 -45 1806 -41 1822 -41 ct 
1839 -41 1855 -45 1869 -53 ct 1884 -62 1895 -74 1901 -89 ct 1907 -103 1910 -125 1910 -153 ct 
1910 -329 l  1966 -329 l  1966 0 l  p ef
2053 0 m  2053 -329 l  2103 -329 l  2103 -283 l  2113 -299 2127 -312 2144 -322 ct 
2161 -332 2181 -337 2203 -337 ct 2227 -337 2247 -332 2263 -322 ct 2278 -311 2289 -297 2296 -279 ct 
2322 -318 2356 -337 2397 -337 ct 2430 -337 2455 -328 2473 -310 ct 2490 -292 2499 -264 2499 -226 ct 
2499 0 l  2444 0 l  2444 -207 l  2444 -230 2442 -246 2438 -256 ct 2434 -265 2428 -273 2418 -279 ct 
2409 -285 2398 -288 2385 -288 ct 2362 -288 2343 -281 2327 -265 ct 2312 -250 2304 -225 2304 -191 ct 
2304 0 l  2249 0 l  2249 -214 l  2249 -239 2244 -257 2235 -270 ct 2226 -282 2211 -288 2190 -288 ct 
2175 -288 2160 -284 2147 -276 ct 2133 -268 2124 -256 2118 -240 ct 2112 -224 2109 -201 2109 -171 ct 
2109 0 l  p ef
2713 0 m  2888 -455 l  2952 -455 l  3138 0 l  3070 0 l  3017 -138 l  2827 -138 l 
2777 0 l  p
2844 -187 m  2998 -187 l  2951 -313 l  2936 -351 2926 -382 2919 -407 ct 2913 -378 2905 -349 2894 -320 ct 
p ef
3396 0 m  3396 -48 l  3370 -11 3335 7 3291 7 ct 3272 7 3254 4 3237 -4 ct 3220 -11 3207 -21 3199 -32 ct 
3191 -43 3185 -57 3182 -73 ct 3180 -84 3179 -101 3179 -125 ct 3179 -329 l  3234 -329 l 
3234 -147 l  3234 -118 3236 -98 3238 -88 ct 3241 -73 3249 -62 3260 -53 ct 3272 -45 3286 -41 3302 -41 ct 
3319 -41 3335 -45 3349 -53 ct 3364 -62 3375 -74 3381 -89 ct 3387 -103 3390 -125 3390 -153 ct 
3390 -329 l  3446 -329 l  3446 0 l  p ef
3746 0 m  3746 -42 l  3726 -9 3695 7 3654 7 ct 3628 7 3604 0 3582 -14 ct 3560 -29 3543 -49 3531 -75 ct 
3519 -101 3513 -131 3513 -164 ct 3513 -197 3518 -227 3529 -254 ct 3540 -281 3557 -301 3578 -315 ct 
3600 -330 3625 -337 3652 -337 ct 3672 -337 3689 -333 3705 -324 ct 3720 -316 3733 -305 3743 -291 ct 
3743 -455 l  3798 -455 l  3798 0 l  p
3570 -164 m  3570 -122 3579 -91 3597 -70 ct 3615 -49 3635 -38 3660 -38 ct 3684 -38 3705 -48 3722 -68 ct 
3739 -88 3747 -119 3747 -160 ct 3747 -205 3739 -238 3721 -259 ct 3704 -280 3683 -291 3657 -291 ct 
3632 -291 3612 -280 3595 -260 ct 3578 -240 3570 -208 3570 -164 ct p ef
3886 -390 m  3886 -455 l  3942 -455 l  3942 -390 l  p
3886 0 m  3886 -329 l  3942 -329 l  3942 0 l  p ef
4006 -165 m  4006 -226 4023 -271 4057 -300 ct 4085 -325 4120 -337 4160 -337 ct 
4206 -337 4243 -322 4271 -292 ct 4300 -263 4315 -222 4315 -169 ct 4315 -127 4308 -94 4296 -69 ct 
4283 -45 4264 -26 4240 -13 ct 4216 1 4189 7 4160 7 ct 4114 7 4077 -7 4049 -37 ct 
4020 -66 4006 -109 4006 -165 ct p
4063 -165 m  4063 -122 4073 -91 4091 -70 ct 4109 -49 4133 -38 4160 -38 ct 4188 -38 4211 -49 4230 -70 ct 
4248 -91 4257 -123 4257 -167 ct 4257 -207 4248 -238 4229 -259 ct 4211 -280 4188 -291 4160 -291 ct 
4133 -291 4109 -280 4091 -259 ct 4073 -238 4063 -207 4063 -165 ct p ef
pom
5950 14800 m  3700 14800 l  3700 12300 l  8200 12300 l  8200 14800 l  5950 14800 l 
pc
pum
5279 13771 t
51 0 m  51 -455 l  111 -455 l  111 -268 l  347 -268 l  347 -455 l  407 -455 l 
407 0 l  347 0 l  347 -214 l  111 -214 l  111 0 l  p ef
805 -455 m  865 -455 l  865 -192 l  865 -146 860 -110 850 -83 ct 840 -56 821 -34 794 -18 ct 
767 -1 732 8 688 8 ct 645 8 610 0 583 -14 ct 556 -29 537 -50 525 -78 ct 514 -106 508 -144 508 -192 ct 
508 -455 l  568 -455 l  568 -192 l  568 -153 572 -124 579 -105 ct 586 -86 599 -72 617 -62 ct 
635 -52 657 -47 682 -47 ct 727 -47 758 -57 777 -77 ct 796 -97 805 -135 805 -192 ct 
p ef
964 0 m  964 -455 l  1134 -455 l  1169 -455 1197 -450 1218 -441 ct 1239 -432 1255 -417 1267 -398 ct 
1279 -379 1285 -359 1285 -338 ct 1285 -319 1279 -301 1269 -283 ct 1258 -266 1242 -252 1221 -242 ct 
1249 -234 1270 -220 1285 -201 ct 1299 -181 1307 -158 1307 -132 ct 1307 -110 1302 -91 1293 -72 ct 
1284 -54 1273 -40 1260 -30 ct 1247 -20 1230 -13 1210 -8 ct 1190 -3 1166 0 1137 0 ct 
p
1024 -264 m  1122 -264 l  1149 -264 1168 -265 1179 -269 ct 1195 -273 1206 -281 1214 -291 ct 
1222 -302 1226 -315 1226 -331 ct 1226 -346 1222 -360 1215 -371 ct 1207 -382 1197 -390 1184 -395 ct 
1170 -399 1147 -401 1115 -401 ct 1024 -401 l  p
1024 -54 m  1137 -54 l  1156 -54 1170 -54 1178 -56 ct 1192 -58 1203 -62 1212 -68 ct 
1222 -74 1229 -82 1235 -93 ct 1241 -105 1244 -117 1244 -132 ct 1244 -149 1240 -163 1231 -176 ct 
1223 -188 1211 -197 1195 -202 ct 1180 -207 1158 -210 1129 -210 ct 1024 -210 l 
p ef
pom
19950 14700 m  17700 14700 l  17700 12200 l  22200 12200 l  22200 14700 l 
19950 14700 l  pc
pum
18204 13671 t
373 -159 m  433 -144 l  421 -95 398 -57 365 -31 ct 333 -5 293 8 245 8 ct 196 8 156 -2 126 -22 ct 
95 -42 72 -71 56 -109 ct 40 -147 32 -187 32 -231 ct 32 -278 41 -319 59 -355 ct 
77 -390 103 -417 136 -435 ct 169 -453 206 -462 246 -462 ct 292 -462 330 -451 361 -428 ct 
392 -404 414 -372 426 -330 ct 366 -316 l  356 -349 341 -373 321 -388 ct 301 -403 275 -411 245 -411 ct 
210 -411 181 -402 157 -386 ct 134 -369 117 -346 108 -318 ct 98 -290 94 -261 94 -231 ct 
94 -192 99 -159 111 -130 ct 122 -101 139 -79 163 -65 ct 187 -51 213 -44 240 -44 ct 
274 -44 303 -53 326 -73 ct 349 -92 365 -121 373 -159 ct p ef
479 -165 m  479 -226 496 -271 530 -300 ct 558 -325 593 -337 633 -337 ct 679 -337 716 -322 744 -292 ct 
773 -263 788 -222 788 -169 ct 788 -127 781 -94 769 -69 ct 756 -45 737 -26 713 -13 ct 
689 1 662 7 633 7 ct 587 7 550 -7 522 -37 ct 493 -66 479 -109 479 -165 ct p
536 -165 m  536 -122 546 -91 564 -70 ct 582 -49 606 -38 633 -38 ct 661 -38 684 -49 703 -70 ct 
721 -91 730 -123 730 -167 ct 730 -207 721 -238 702 -259 ct 684 -280 661 -291 633 -291 ct 
606 -291 582 -280 564 -259 ct 546 -238 536 -207 536 -165 ct p ef
853 0 m  853 -329 l  903 -329 l  903 -283 l  913 -299 927 -312 944 -322 ct 
961 -332 981 -337 1003 -337 ct 1027 -337 1047 -332 1063 -322 ct 1078 -311 1089 -297 1096 -279 ct 
1122 -318 1156 -337 1197 -337 ct 1230 -337 1255 -328 1273 -310 ct 1290 -292 1299 -264 1299 -226 ct 
1299 0 l  1244 0 l  1244 -207 l  1244 -230 1242 -246 1238 -256 ct 1234 -265 1228 -273 1218 -279 ct 
1209 -285 1198 -288 1185 -288 ct 1162 -288 1143 -281 1127 -265 ct 1112 -250 1104 -225 1104 -191 ct 
1104 0 l  1049 0 l  1049 -214 l  1049 -239 1044 -257 1035 -270 ct 1026 -282 1011 -288 990 -288 ct 
975 -288 960 -284 947 -276 ct 933 -268 924 -256 918 -240 ct 912 -224 909 -201 909 -171 ct 
909 0 l  p ef
1382 0 m  1382 -329 l  1432 -329 l  1432 -283 l  1442 -299 1456 -312 1473 -322 ct 
1490 -332 1510 -337 1532 -337 ct 1556 -337 1576 -332 1592 -322 ct 1607 -311 1618 -297 1625 -279 ct 
1651 -318 1685 -337 1726 -337 ct 1759 -337 1784 -328 1802 -310 ct 1819 -292 1828 -264 1828 -226 ct 
1828 0 l  1773 0 l  1773 -207 l  1773 -230 1771 -246 1767 -256 ct 1763 -265 1757 -273 1747 -279 ct 
1738 -285 1727 -288 1714 -288 ct 1691 -288 1672 -281 1656 -265 ct 1641 -250 1633 -225 1633 -191 ct 
1633 0 l  1578 0 l  1578 -214 l  1578 -239 1573 -257 1564 -270 ct 1555 -282 1540 -288 1519 -288 ct 
1504 -288 1489 -284 1476 -276 ct 1462 -268 1453 -256 1447 -240 ct 1441 -224 1438 -201 1438 -171 ct 
1438 0 l  p ef
2126 -41 m  2105 -23 2085 -11 2066 -3 ct 2047 4 2026 7 2004 7 ct 1968 7 1941 -1 1921 -19 ct 
1902 -37 1892 -59 1892 -87 ct 1892 -103 1896 -118 1903 -131 ct 1910 -144 1920 -155 1932 -163 ct 
1944 -171 1957 -177 1972 -181 ct 1983 -184 1999 -187 2022 -190 ct 2067 -195 2100 -202 2121 -209 ct 
2121 -217 2121 -221 2121 -224 ct 2121 -246 2116 -262 2106 -272 ct 2091 -284 2070 -291 2042 -291 ct 
2016 -291 1996 -286 1984 -277 ct 1971 -268 1962 -251 1956 -228 ct 1902 -235 l 
1907 -259 1915 -278 1926 -292 ct 1937 -306 1954 -317 1975 -325 ct 1997 -333 2022 -337 2050 -337 ct 
2078 -337 2101 -333 2119 -327 ct 2136 -320 2149 -312 2157 -302 ct 2166 -292 2171 -279 2175 -264 ct 
2177 -254 2178 -237 2178 -212 ct 2178 -138 l  2178 -86 2179 -53 2181 -40 ct 
2183 -26 2188 -13 2195 0 ct 2137 0 l  2131 -12 2127 -25 2126 -41 ct p
2121 -165 m  2101 -157 2070 -150 2030 -144 ct 2007 -141 1991 -137 1981 -133 ct 
1972 -129 1964 -123 1959 -115 ct 1954 -107 1951 -98 1951 -88 ct 1951 -73 1957 -61 1968 -51 ct 
1980 -41 1996 -36 2018 -36 ct 2039 -36 2058 -41 2075 -50 ct 2092 -60 2104 -73 2112 -89 ct 
2118 -102 2121 -120 2121 -145 ct p ef
2264 0 m  2264 -329 l  2314 -329 l  2314 -282 l  2338 -319 2373 -337 2419 -337 ct 
2439 -337 2457 -333 2474 -326 ct 2490 -319 2503 -310 2511 -298 ct 2519 -286 2525 -273 2528 -257 ct 
2530 -246 2531 -228 2531 -202 ct 2531 0 l  2476 0 l  2476 -200 l  2476 -223 2473 -240 2469 -251 ct 
2465 -263 2457 -272 2446 -278 ct 2435 -285 2422 -288 2407 -288 ct 2383 -288 2363 -281 2346 -266 ct 
2328 -251 2320 -222 2320 -180 ct 2320 0 l  p ef
2830 0 m  2830 -42 l  2810 -9 2779 7 2738 7 ct 2712 7 2688 0 2666 -14 ct 2644 -29 2627 -49 2615 -75 ct 
2603 -101 2597 -131 2597 -164 ct 2597 -197 2602 -227 2613 -254 ct 2624 -281 2641 -301 2662 -315 ct 
2684 -330 2709 -337 2736 -337 ct 2756 -337 2773 -333 2789 -324 ct 2804 -316 2817 -305 2827 -291 ct 
2827 -455 l  2882 -455 l  2882 0 l  p
2654 -164 m  2654 -122 2663 -91 2681 -70 ct 2699 -49 2719 -38 2744 -38 ct 2768 -38 2789 -48 2806 -68 ct 
2823 -88 2831 -119 2831 -160 ct 2831 -205 2823 -238 2805 -259 ct 2788 -280 2767 -291 2741 -291 ct 
2716 -291 2696 -280 2679 -260 ct 2662 -240 2654 -208 2654 -164 ct p ef
3196 -106 m  3254 -99 l  3245 -65 3228 -39 3203 -20 ct 3179 -2 3147 7 3109 7 ct 
3061 7 3023 -7 2995 -37 ct 2966 -67 2952 -108 2952 -162 ct 2952 -217 2967 -260 2995 -291 ct 
3024 -321 3061 -337 3106 -337 ct 3150 -337 3186 -322 3214 -292 ct 3242 -262 3256 -220 3256 -165 ct 
3256 -162 3256 -157 3255 -150 ct 3010 -150 l  3012 -114 3022 -87 3041 -67 ct 
3059 -48 3082 -38 3109 -38 ct 3130 -38 3147 -44 3162 -55 ct 3176 -65 3188 -82 3196 -106 ct 
p
3013 -196 m  3197 -196 l  3194 -224 3187 -245 3176 -259 ct 3158 -280 3135 -291 3107 -291 ct 
3081 -291 3059 -282 3042 -265 ct 3025 -248 3015 -225 3013 -196 ct p ef
3323 0 m  3323 -329 l  3373 -329 l  3373 -279 l  3386 -303 3398 -318 3409 -326 ct 
3420 -333 3432 -337 3445 -337 ct 3464 -337 3483 -331 3502 -319 ct 3483 -267 l 
3469 -275 3456 -279 3442 -279 ct 3430 -279 3419 -275 3409 -268 ct 3399 -261 3392 -251 3388 -238 ct 
3382 -218 3379 -196 3379 -172 ct 3379 0 l  p ef
pom
25150 9600 m  22600 9600 l  22600 7100 l  27700 7100 l  27700 9600 l  25150 9600 l 
pc
pum
22892 8571 t
165 0 m  165 -401 l  15 -401 l  15 -455 l  375 -455 l  375 -401 l  225 -401 l 
225 0 l  p ef
645 0 m  645 -48 l  619 -11 584 7 540 7 ct 521 7 503 4 486 -4 ct 469 -11 456 -21 448 -32 ct 
440 -43 434 -57 431 -73 ct 429 -84 428 -101 428 -125 ct 428 -329 l  483 -329 l 
483 -147 l  483 -118 485 -98 487 -88 ct 490 -73 498 -62 509 -53 ct 521 -45 535 -41 551 -41 ct 
568 -41 584 -45 598 -53 ct 613 -62 624 -74 630 -89 ct 636 -103 639 -125 639 -153 ct 
639 -329 l  695 -329 l  695 0 l  p ef
783 0 m  783 -329 l  833 -329 l  833 -282 l  857 -319 892 -337 938 -337 ct 
958 -337 976 -333 993 -326 ct 1009 -319 1022 -310 1030 -298 ct 1038 -286 1044 -273 1047 -257 ct 
1049 -246 1050 -228 1050 -202 ct 1050 0 l  995 0 l  995 -200 l  995 -223 992 -240 988 -251 ct 
984 -263 976 -272 965 -278 ct 954 -285 941 -288 926 -288 ct 902 -288 882 -281 865 -266 ct 
847 -251 839 -222 839 -180 ct 839 0 l  p ef
1361 -106 m  1419 -99 l  1410 -65 1393 -39 1368 -20 ct 1344 -2 1312 7 1274 7 ct 
1226 7 1188 -7 1160 -37 ct 1131 -67 1117 -108 1117 -162 ct 1117 -217 1132 -260 1160 -291 ct 
1189 -321 1226 -337 1271 -337 ct 1315 -337 1351 -322 1379 -292 ct 1407 -262 1421 -220 1421 -165 ct 
1421 -162 1421 -157 1420 -150 ct 1175 -150 l  1177 -114 1187 -87 1206 -67 ct 
1224 -48 1247 -38 1274 -38 ct 1295 -38 1312 -44 1327 -55 ct 1341 -65 1353 -82 1361 -106 ct 
p
1178 -196 m  1362 -196 l  1359 -224 1352 -245 1341 -259 ct 1323 -280 1300 -291 1272 -291 ct 
1246 -291 1224 -282 1207 -265 ct 1190 -248 1180 -225 1178 -196 ct p ef
1488 0 m  1488 -329 l  1538 -329 l  1538 -279 l  1551 -303 1563 -318 1574 -326 ct 
1585 -333 1597 -337 1610 -337 ct 1629 -337 1648 -331 1667 -319 ct 1648 -267 l 
1634 -275 1621 -279 1607 -279 ct 1595 -279 1584 -275 1574 -268 ct 1564 -261 1557 -251 1553 -238 ct 
1547 -218 1544 -196 1544 -172 ct 1544 0 l  p ef
1834 0 m  2009 -455 l  2073 -455 l  2259 0 l  2191 0 l  2138 -138 l  1948 -138 l 
1898 0 l  p
1965 -187 m  2119 -187 l  2072 -313 l  2057 -351 2047 -382 2040 -407 ct 2034 -378 2026 -349 2015 -320 ct 
p ef
2305 0 m  2305 -455 l  2396 -455 l  2503 -133 l  2513 -103 2520 -80 2525 -65 ct 
2530 -82 2538 -106 2549 -138 ct 2658 -455 l  2739 -455 l  2739 0 l  2681 0 l 
2681 -380 l  2549 0 l  2495 0 l  2363 -387 l  2363 0 l  p ef
2836 0 m  2836 -455 l  3007 -455 l  3038 -455 3061 -453 3077 -450 ct 3099 -446 3118 -439 3133 -429 ct 
3148 -419 3160 -404 3169 -385 ct 3178 -366 3183 -346 3183 -323 ct 3183 -284 3171 -252 3146 -225 ct 
3121 -198 3077 -185 3013 -185 ct 2896 -185 l  2896 0 l  p
2896 -238 m  3014 -238 l  3053 -238 3080 -246 3096 -260 ct 3113 -275 3121 -295 3121 -321 ct 
3121 -340 3116 -357 3107 -370 ct 3097 -384 3084 -393 3069 -397 ct 3058 -400 3040 -401 3012 -401 ct 
2896 -401 l  p ef
3734 -455 m  3794 -455 l  3794 -192 l  3794 -146 3789 -110 3779 -83 ct 3769 -56 3750 -34 3723 -18 ct 
3696 -1 3661 8 3617 8 ct 3574 8 3539 0 3512 -14 ct 3485 -29 3466 -50 3454 -78 ct 
3443 -106 3437 -144 3437 -192 ct 3437 -455 l  3497 -455 l  3497 -192 l  3497 -153 3501 -124 3508 -105 ct 
3515 -86 3528 -72 3546 -62 ct 3564 -52 3586 -47 3611 -47 ct 3656 -47 3687 -57 3706 -77 ct 
3725 -97 3734 -135 3734 -192 ct p ef
3888 0 m  3888 -329 l  3938 -329 l  3938 -282 l  3962 -319 3997 -337 4043 -337 ct 
4063 -337 4081 -333 4098 -326 ct 4114 -319 4127 -310 4135 -298 ct 4143 -286 4149 -273 4152 -257 ct 
4154 -246 4155 -228 4155 -202 ct 4155 0 l  4100 0 l  4100 -200 l  4100 -223 4097 -240 4093 -251 ct 
4089 -263 4081 -272 4070 -278 ct 4059 -285 4046 -288 4031 -288 ct 4007 -288 3987 -281 3970 -266 ct 
3952 -251 3944 -222 3944 -180 ct 3944 0 l  p ef
4241 -390 m  4241 -455 l  4297 -455 l  4297 -390 l  p
4241 0 m  4241 -329 l  4297 -329 l  4297 0 l  p ef
4504 -50 m  4512 -1 l  4496 3 4482 4 4470 4 ct 4449 4 4434 1 4422 -5 ct 4411 -12 4403 -20 4399 -31 ct 
4394 -41 4392 -63 4392 -96 ct 4392 -286 l  4351 -286 l  4351 -329 l  4392 -329 l 
4392 -411 l  4448 -444 l  4448 -329 l  4504 -329 l  4504 -286 l  4448 -286 l 
4448 -93 l  4448 -77 4449 -67 4451 -63 ct 4452 -58 4456 -54 4460 -52 ct 4465 -49 4471 -48 4479 -48 ct 
4485 -48 4494 -48 4504 -50 ct p ef
pom
4950 9600 m  2700 9600 l  2700 7100 l  7200 7100 l  7200 9600 l  4950 9600 l 
pc
pum
4032 8571 t
49 0 m  49 -455 l  220 -455 l  251 -455 274 -453 290 -450 ct 312 -446 331 -439 346 -429 ct 
361 -419 373 -404 382 -385 ct 391 -366 396 -346 396 -323 ct 396 -284 384 -252 359 -225 ct 
334 -198 290 -185 226 -185 ct 109 -185 l  109 0 l  p
109 -238 m  227 -238 l  266 -238 293 -246 309 -260 ct 326 -275 334 -295 334 -321 ct 
334 -340 329 -357 320 -370 ct 310 -384 297 -393 282 -397 ct 271 -400 253 -401 225 -401 ct 
109 -401 l  p ef
465 0 m  465 -455 l  521 -455 l  521 -291 l  547 -322 580 -337 619 -337 ct 
644 -337 665 -332 683 -322 ct 701 -313 714 -299 721 -282 ct 729 -266 733 -241 733 -209 ct 
733 0 l  677 0 l  677 -209 l  677 -237 671 -257 659 -270 ct 647 -282 630 -289 608 -289 ct 
591 -289 576 -284 561 -276 ct 547 -267 536 -256 530 -241 ct 524 -226 521 -206 521 -180 ct 
521 0 l  p ef
797 -165 m  797 -226 814 -271 848 -300 ct 876 -325 911 -337 951 -337 ct 997 -337 1034 -322 1062 -292 ct 
1091 -263 1106 -222 1106 -169 ct 1106 -127 1099 -94 1087 -69 ct 1074 -45 1055 -26 1031 -13 ct 
1007 1 980 7 951 7 ct 905 7 868 -7 840 -37 ct 811 -66 797 -109 797 -165 ct p
854 -165 m  854 -122 864 -91 882 -70 ct 900 -49 924 -38 951 -38 ct 979 -38 1002 -49 1021 -70 ct 
1039 -91 1048 -123 1048 -167 ct 1048 -207 1039 -238 1020 -259 ct 1002 -280 979 -291 951 -291 ct 
924 -291 900 -280 882 -259 ct 864 -238 854 -207 854 -165 ct p ef
1171 0 m  1171 -329 l  1221 -329 l  1221 -282 l  1245 -319 1280 -337 1326 -337 ct 
1346 -337 1364 -333 1381 -326 ct 1397 -319 1410 -310 1418 -298 ct 1426 -286 1432 -273 1435 -257 ct 
1437 -246 1438 -228 1438 -202 ct 1438 0 l  1383 0 l  1383 -200 l  1383 -223 1380 -240 1376 -251 ct 
1372 -263 1364 -272 1353 -278 ct 1342 -285 1329 -288 1314 -288 ct 1290 -288 1270 -281 1253 -266 ct 
1235 -251 1227 -222 1227 -180 ct 1227 0 l  p ef
1750 -106 m  1808 -99 l  1799 -65 1782 -39 1757 -20 ct 1733 -2 1701 7 1663 7 ct 
1615 7 1577 -7 1549 -37 ct 1520 -67 1506 -108 1506 -162 ct 1506 -217 1521 -260 1549 -291 ct 
1578 -321 1615 -337 1660 -337 ct 1704 -337 1740 -322 1768 -292 ct 1796 -262 1810 -220 1810 -165 ct 
1810 -162 1810 -157 1809 -150 ct 1564 -150 l  1566 -114 1576 -87 1595 -67 ct 
1613 -48 1636 -38 1663 -38 ct 1684 -38 1701 -44 1716 -55 ct 1730 -65 1742 -82 1750 -106 ct 
p
1567 -196 m  1751 -196 l  1748 -224 1741 -245 1730 -259 ct 1712 -280 1689 -291 1661 -291 ct 
1635 -291 1613 -282 1596 -265 ct 1579 -248 1569 -225 1567 -196 ct p ef
pom
7225 4500 m  4975 4500 l  4975 2350 l  9475 2350 l  9475 4500 l  7225 4500 l 
pc
pum
5989 3646 t
262 -178 m  262 -232 l  454 -232 l  454 -63 l  425 -40 394 -22 363 -10 ct 
331 2 299 8 266 8 ct 221 8 181 -2 144 -21 ct 108 -40 80 -68 62 -104 ct 43 -140 34 -180 34 -225 ct 
34 -269 43 -311 62 -349 ct 80 -387 107 -416 141 -434 ct 176 -453 216 -462 261 -462 ct 
294 -462 324 -457 351 -446 ct 377 -436 398 -421 413 -402 ct 428 -383 440 -358 447 -327 ct 
393 -313 l  386 -336 378 -354 368 -367 ct 358 -380 343 -391 324 -399 ct 306 -407 285 -411 262 -411 ct 
234 -411 210 -407 190 -398 ct 170 -390 154 -379 142 -365 ct 130 -352 120 -337 113 -320 ct 
102 -292 96 -262 96 -229 ct 96 -188 103 -154 117 -127 ct 131 -100 151 -80 178 -66 ct 
204 -53 233 -47 263 -47 ct 289 -47 314 -52 339 -62 ct 364 -72 383 -82 395 -94 ct 
395 -178 l  p ef
542 0 m  542 -455 l  713 -455 l  744 -455 767 -453 783 -450 ct 805 -446 824 -439 839 -429 ct 
854 -419 866 -404 875 -385 ct 884 -366 889 -346 889 -323 ct 889 -284 877 -252 852 -225 ct 
827 -198 783 -185 719 -185 ct 602 -185 l  602 0 l  p
602 -238 m  720 -238 l  759 -238 786 -246 802 -260 ct 819 -275 827 -295 827 -321 ct 
827 -340 822 -357 813 -370 ct 803 -384 790 -393 775 -397 ct 764 -400 746 -401 718 -401 ct 
602 -401 l  p ef
946 -146 m  1002 -151 l  1005 -128 1011 -110 1021 -95 ct 1031 -80 1046 -69 1067 -60 ct 
1087 -51 1111 -46 1137 -46 ct 1159 -46 1180 -50 1197 -56 ct 1215 -63 1228 -73 1237 -84 ct 
1245 -96 1249 -109 1249 -123 ct 1249 -138 1245 -150 1237 -161 ct 1229 -171 1215 -180 1196 -188 ct 
1184 -192 1157 -200 1115 -210 ct 1073 -220 1044 -229 1027 -238 ct 1006 -249 990 -264 979 -280 ct 
968 -297 963 -316 963 -337 ct 963 -360 969 -381 982 -401 ct 995 -421 1014 -436 1039 -447 ct 
1064 -457 1092 -462 1123 -462 ct 1157 -462 1186 -457 1212 -446 ct 1238 -435 1258 -419 1271 -398 ct 
1285 -377 1293 -353 1294 -326 ct 1236 -322 l  1233 -351 1222 -373 1205 -387 ct 
1187 -402 1160 -409 1125 -409 ct 1089 -409 1062 -403 1046 -389 ct 1029 -376 1021 -360 1021 -341 ct 
1021 -325 1027 -311 1039 -301 ct 1050 -290 1080 -279 1129 -268 ct 1178 -257 1212 -248 1230 -239 ct 
1256 -227 1276 -212 1288 -193 ct 1301 -174 1307 -153 1307 -128 ct 1307 -104 1300 -81 1287 -60 ct 
1273 -39 1253 -22 1227 -10 ct 1201 2 1172 8 1139 8 ct 1098 8 1064 2 1036 -10 ct 
1008 -22 986 -40 970 -64 ct 955 -88 946 -116 946 -146 ct p ef
1516 0 m  1691 -455 l  1755 -455 l  1941 0 l  1873 0 l  1820 -138 l  1630 -138 l 
1580 0 l  p
1647 -187 m  1801 -187 l  1754 -313 l  1739 -351 1729 -382 1722 -407 ct 1716 -378 1708 -349 1697 -320 ct 
p ef
1982 0 m  1982 -329 l  2032 -329 l  2032 -282 l  2056 -319 2091 -337 2137 -337 ct 
2157 -337 2175 -333 2192 -326 ct 2208 -319 2221 -310 2229 -298 ct 2237 -286 2243 -273 2246 -257 ct 
2248 -246 2249 -228 2249 -202 ct 2249 0 l  2194 0 l  2194 -200 l  2194 -223 2191 -240 2187 -251 ct 
2183 -263 2175 -272 2164 -278 ct 2153 -285 2140 -288 2125 -288 ct 2101 -288 2081 -281 2064 -266 ct 
2046 -251 2038 -222 2038 -180 ct 2038 0 l  p ef
2458 -50 m  2466 -1 l  2450 3 2436 4 2424 4 ct 2403 4 2388 1 2376 -5 ct 2365 -12 2357 -20 2353 -31 ct 
2348 -41 2346 -63 2346 -96 ct 2346 -286 l  2305 -286 l  2305 -329 l  2346 -329 l 
2346 -411 l  2402 -444 l  2402 -329 l  2458 -329 l  2458 -286 l  2402 -286 l 
2402 -93 l  2402 -77 2403 -67 2405 -63 ct 2406 -58 2410 -54 2414 -52 ct 2419 -49 2425 -48 2433 -48 ct 
2439 -48 2448 -48 2458 -50 ct p ef
pom
6100 12200 m  6100 10500 l  ps
6100 10500 m  15000 10500 l  ps
15000 9600 m  15000 10500 l  ps
7600 14700 m  7600 16100 l  ps
4050 18600 m  2500 18600 l  2500 16100 l  5600 16100 l  5600 18600 l  4050 18600 l 
pc
pum
3398 17571 t
347 -455 m  407 -455 l  407 -192 l  407 -146 402 -110 392 -83 ct 382 -56 363 -34 336 -18 ct 
309 -1 274 8 230 8 ct 187 8 152 0 125 -14 ct 98 -29 79 -50 67 -78 ct 56 -106 50 -144 50 -192 ct 
50 -455 l  110 -455 l  110 -192 l  110 -153 114 -124 121 -105 ct 128 -86 141 -72 159 -62 ct 
177 -52 199 -47 224 -47 ct 269 -47 300 -57 319 -77 ct 338 -97 347 -135 347 -192 ct 
p ef
486 -146 m  542 -151 l  545 -128 551 -110 561 -95 ct 571 -80 586 -69 607 -60 ct 
627 -51 651 -46 677 -46 ct 699 -46 720 -50 737 -56 ct 755 -63 768 -73 777 -84 ct 
785 -96 789 -109 789 -123 ct 789 -138 785 -150 777 -161 ct 769 -171 755 -180 736 -188 ct 
724 -192 697 -200 655 -210 ct 613 -220 584 -229 567 -238 ct 546 -249 530 -264 519 -280 ct 
508 -297 503 -316 503 -337 ct 503 -360 509 -381 522 -401 ct 535 -421 554 -436 579 -447 ct 
604 -457 632 -462 663 -462 ct 697 -462 726 -457 752 -446 ct 778 -435 798 -419 811 -398 ct 
825 -377 833 -353 834 -326 ct 776 -322 l  773 -351 762 -373 745 -387 ct 727 -402 700 -409 665 -409 ct 
629 -409 602 -403 586 -389 ct 569 -376 561 -360 561 -341 ct 561 -325 567 -311 579 -301 ct 
590 -290 620 -279 669 -268 ct 718 -257 752 -248 770 -239 ct 796 -227 816 -212 828 -193 ct 
841 -174 847 -153 847 -128 ct 847 -104 840 -81 827 -60 ct 813 -39 793 -22 767 -10 ct 
741 2 712 8 679 8 ct 638 8 604 2 576 -10 ct 548 -22 526 -40 510 -64 ct 495 -88 486 -116 486 -146 ct 
p ef
927 0 m  927 -455 l  1097 -455 l  1132 -455 1160 -450 1181 -441 ct 1202 -432 1218 -417 1230 -398 ct 
1242 -379 1248 -359 1248 -338 ct 1248 -319 1242 -301 1232 -283 ct 1221 -266 1205 -252 1184 -242 ct 
1212 -234 1233 -220 1248 -201 ct 1262 -181 1270 -158 1270 -132 ct 1270 -110 1265 -91 1256 -72 ct 
1247 -54 1236 -40 1223 -30 ct 1210 -20 1193 -13 1173 -8 ct 1153 -3 1129 0 1100 0 ct 
p
987 -264 m  1085 -264 l  1112 -264 1131 -265 1142 -269 ct 1158 -273 1169 -281 1177 -291 ct 
1185 -302 1189 -315 1189 -331 ct 1189 -346 1185 -360 1178 -371 ct 1170 -382 1160 -390 1147 -395 ct 
1133 -399 1110 -401 1078 -401 ct 987 -401 l  p
987 -54 m  1100 -54 l  1119 -54 1133 -54 1141 -56 ct 1155 -58 1166 -62 1175 -68 ct 
1185 -74 1192 -82 1198 -93 ct 1204 -105 1207 -117 1207 -132 ct 1207 -149 1203 -163 1194 -176 ct 
1186 -188 1174 -197 1158 -202 ct 1143 -207 1121 -210 1092 -210 ct 987 -210 l 
p ef
pom
4600 14800 m  4600 16200 l  ps
12800 16100 m  12800 15500 l  ps
16000 15500 m  12800 15500 l  ps
16000 15500 m  16000 9700 l  ps
18800 16100 m  18800 15500 l  ps
18800 15500 m  16800 15500 l  ps
16800 15500 m  16800 9700 l  ps
19800 12300 m  19800 11200 l  ps
19800 11200 m  17700 11200 l  ps
17700 11200 m  17700 9600 l  ps
18400 8300 m  22600 8300 l  ps
25200 9600 m  25200 16100 l  ps
[ 51 51 51 51 ] 0 ld
7200 8300 m  13900 8300 l  ps
[ ] 0 ld
16000 4500 m  16000 7100 l  ps
7400 4500 m  7400 6000 l  ps
7300 6000 m  14500 6100 l  ps
14500 6100 m  14500 7100 l  ps

pum
8147 8001 t
93 0 m  42 0 l  42 -455 l  97 -455 l  97 -292 l  121 -322 151 -337 188 -337 ct 
208 -337 227 -333 245 -324 ct 263 -316 278 -305 290 -290 ct 301 -275 311 -257 317 -237 ct 
324 -216 327 -193 327 -170 ct 327 -113 313 -70 285 -39 ct 257 -8 224 7 185 7 ct 
146 7 115 -9 93 -41 ct p
93 -167 m  93 -128 98 -99 109 -82 ct 126 -53 150 -38 180 -38 ct 205 -38 226 -49 243 -70 ct 
261 -91 270 -123 270 -165 ct 270 -208 262 -240 244 -260 ct 227 -281 207 -291 183 -291 ct 
158 -291 137 -280 119 -259 ct 102 -238 93 -207 93 -167 ct p ef
394 0 m  394 -455 l  449 -455 l  449 0 l  p ef
752 0 m  752 -48 l  726 -11 691 7 647 7 ct 628 7 610 4 593 -4 ct 576 -11 563 -21 555 -32 ct 
547 -43 541 -57 538 -73 ct 536 -84 535 -101 535 -125 ct 535 -329 l  590 -329 l 
590 -147 l  590 -118 592 -98 594 -88 ct 597 -73 605 -62 616 -53 ct 628 -45 642 -41 658 -41 ct 
675 -41 691 -45 705 -53 ct 720 -62 731 -74 737 -89 ct 743 -103 746 -125 746 -153 ct 
746 -329 l  802 -329 l  802 0 l  p ef
1114 -106 m  1172 -99 l  1163 -65 1146 -39 1121 -20 ct 1097 -2 1065 7 1027 7 ct 
979 7 941 -7 913 -37 ct 884 -67 870 -108 870 -162 ct 870 -217 885 -260 913 -291 ct 
942 -321 979 -337 1024 -337 ct 1068 -337 1104 -322 1132 -292 ct 1160 -262 1174 -220 1174 -165 ct 
1174 -162 1174 -157 1173 -150 ct 928 -150 l  930 -114 940 -87 959 -67 ct 977 -48 1000 -38 1027 -38 ct 
1048 -38 1065 -44 1080 -55 ct 1094 -65 1106 -82 1114 -106 ct p
931 -196 m  1115 -196 l  1112 -224 1105 -245 1094 -259 ct 1076 -280 1053 -291 1025 -291 ct 
999 -291 977 -282 960 -265 ct 943 -248 933 -225 931 -196 ct p ef
1364 -50 m  1372 -1 l  1356 3 1342 4 1330 4 ct 1309 4 1294 1 1282 -5 ct 1271 -12 1263 -20 1259 -31 ct 
1254 -41 1252 -63 1252 -96 ct 1252 -286 l  1211 -286 l  1211 -329 l  1252 -329 l 
1252 -411 l  1308 -444 l  1308 -329 l  1364 -329 l  1364 -286 l  1308 -286 l 
1308 -93 l  1308 -77 1309 -67 1311 -63 ct 1312 -58 1316 -54 1320 -52 ct 1325 -49 1331 -48 1339 -48 ct 
1345 -48 1354 -48 1364 -50 ct p ef
1397 -165 m  1397 -226 1414 -271 1448 -300 ct 1476 -325 1511 -337 1551 -337 ct 
1597 -337 1634 -322 1662 -292 ct 1691 -263 1706 -222 1706 -169 ct 1706 -127 1699 -94 1687 -69 ct 
1674 -45 1655 -26 1631 -13 ct 1607 1 1580 7 1551 7 ct 1505 7 1468 -7 1440 -37 ct 
1411 -66 1397 -109 1397 -165 ct p
1454 -165 m  1454 -122 1464 -91 1482 -70 ct 1500 -49 1524 -38 1551 -38 ct 1579 -38 1602 -49 1621 -70 ct 
1639 -91 1648 -123 1648 -167 ct 1648 -207 1639 -238 1620 -259 ct 1602 -280 1579 -291 1551 -291 ct 
1524 -291 1500 -280 1482 -259 ct 1464 -238 1454 -207 1454 -165 ct p ef
1751 -165 m  1751 -226 1768 -271 1802 -300 ct 1830 -325 1865 -337 1905 -337 ct 
1951 -337 1988 -322 2016 -292 ct 2045 -263 2060 -222 2060 -169 ct 2060 -127 2053 -94 2041 -69 ct 
2028 -45 2009 -26 1985 -13 ct 1961 1 1934 7 1905 7 ct 1859 7 1822 -7 1794 -37 ct 
1765 -66 1751 -109 1751 -165 ct p
1808 -165 m  1808 -122 1818 -91 1836 -70 ct 1854 -49 1878 -38 1905 -38 ct 1933 -38 1956 -49 1975 -70 ct 
1993 -91 2002 -123 2002 -167 ct 2002 -207 1993 -238 1974 -259 ct 1956 -280 1933 -291 1905 -291 ct 
1878 -291 1854 -280 1836 -259 ct 1818 -238 1808 -207 1808 -165 ct p ef
2247 -50 m  2255 -1 l  2239 3 2225 4 2213 4 ct 2192 4 2177 1 2165 -5 ct 2154 -12 2146 -20 2142 -31 ct 
2137 -41 2135 -63 2135 -96 ct 2135 -286 l  2094 -286 l  2094 -329 l  2135 -329 l 
2135 -411 l  2191 -444 l  2191 -329 l  2247 -329 l  2247 -286 l  2191 -286 l 
2191 -93 l  2191 -77 2192 -67 2194 -63 ct 2195 -58 2199 -54 2203 -52 ct 2208 -49 2214 -48 2222 -48 ct 
2228 -48 2237 -48 2247 -50 ct p ef
2301 0 m  2301 -455 l  2357 -455 l  2357 -291 l  2383 -322 2416 -337 2455 -337 ct 
2480 -337 2501 -332 2519 -322 ct 2537 -313 2550 -299 2557 -282 ct 2565 -266 2569 -241 2569 -209 ct 
2569 0 l  2513 0 l  2513 -209 l  2513 -237 2507 -257 2495 -270 ct 2483 -282 2466 -289 2444 -289 ct 
2427 -289 2412 -284 2397 -276 ct 2383 -267 2372 -256 2366 -241 ct 2360 -226 2357 -206 2357 -180 ct 
2357 0 l  p ef
2789 8 m  2921 -462 l  2965 -462 l  2834 8 l  p ef
3093 0 m  2973 -455 l  3034 -455 l  3104 -157 l  3111 -125 3117 -94 3123 -64 ct 
3134 -112 3141 -140 3143 -148 ct 3230 -455 l  3302 -455 l  3367 -224 l  3384 -167 3396 -114 3403 -64 ct 
3409 -92 3416 -125 3425 -162 ct 3497 -455 l  3557 -455 l  3433 0 l  3375 0 l 
3279 -346 l  3271 -375 3266 -393 3265 -400 ct 3260 -379 3255 -361 3251 -346 ct 
3155 0 l  p ef
3612 0 m  3612 -455 l  3672 -455 l  3672 -54 l  3896 -54 l  3896 0 l  p ef
3917 0 m  4092 -455 l  4156 -455 l  4342 0 l  4274 0 l  4221 -138 l  4031 -138 l 
3981 0 l  p
4048 -187 m  4202 -187 l  4155 -313 l  4140 -351 4130 -382 4123 -407 ct 4117 -378 4109 -349 4098 -320 ct 
p ef
4389 0 m  4389 -455 l  4451 -455 l  4690 -98 l  4690 -455 l  4747 -455 l 
4747 0 l  4686 0 l  4447 -357 l  4447 0 l  p ef
pom
gr
gs
0 0 m 29699 0 l 29699 20999 l 0 20999 l 0 0 l eoclip newpath
gr
gr
0 21000 t 
pom
count op_count sub {pop} repeat countdictstack dict_count sub {end} repeat b4_inc_state restore
%%PageTrailer
%%Trailer
%%EOF
